<svg width="85" height="85" viewBox="0 0 85 85" fill="none" xmlns="http://www.w3.org/2000/svg">
  <path
    d="M84.1846 47.5029C87.6847 28.0029 36.6846 -8.99691 14.6846 2.00287C-7.31537 13.0027 -2.31541 74.003 14.6846 82.5029C31.6846 91.0028 80.6846 67.0028 84.1846 47.5029Z"
    fill="url(#paint0_linear)" />
  <path fill-rule="evenodd" clip-rule="evenodd"
    d="M22.375 32.3125L23.5625 31.125H54.4375L55.625 32.3125V53.6875L54.4375 54.875H23.5625L22.375 53.6875V32.3125ZM24.75 34.7706V52.5H53.25V34.773L39.7363 45.1375H38.2875L24.75 34.7706ZM50.9462 33.5H27.0538L39 42.6889L50.9462 33.5Z"
    fill="white" />
  <defs>
    <linearGradient id="paint0_linear" x1="-0.315368" y1="29.5026" x2="84.6846" y2="51.0026"
      gradientUnits="userSpaceOnUse">
      <stop stop-color="#667EEA" />
      <stop offset="1" stop-color="#845EC2" />
    </linearGradient>
  </defs>
</svg>