<svg width="48" height="48" viewBox="0 0 48 48" fill="none" xmlns="http://www.w3.org/2000/svg">
  <path
    d="M41.2969 15.0469C40.9844 14.9844 40.75 14.9531 40.5938 14.9531C39.4375 14.9531 38.4375 15.3438 37.5938 16.125C35.6875 15.2812 33.9062 14.5937 32.25 14.0625C29.5312 13.1875 26.6875 12.4688 23.7188 11.9062C23.4375 11.1562 23.0156 10.5313 22.4531 10.0312C23.2344 6.34375 24.2812 3 25.5938 0C29.5312 0.28125 33.1484 1.42187 36.4453 3.42188C39.7422 5.42188 42.4063 8.04687 44.4375 11.2969C43.2813 12.5469 42.2344 13.7969 41.2969 15.0469ZM19.5469 8.95312C18.7344 8.95312 17.9687 9.17188 17.25 9.60938C14.7188 7.73438 12.1719 6.14062 9.60938 4.82812C13.4844 1.89062 17.8281 0.28125 22.6406 0C21.4219 2.71875 20.4375 5.70312 19.6875 8.95312H19.5469ZM3.28125 11.8594C4.34375 10.0781 5.6875 8.39062 7.3125 6.79688C9.4375 7.89063 11.6406 9.23438 13.9219 10.8281C9.89062 10.7344 6.34375 11.0781 3.28125 11.8594ZM15.0469 13.7344C15.1094 14.7031 15.4453 15.5547 16.0547 16.2891C16.6641 17.0234 17.4219 17.5156 18.3281 17.7656C18.1406 19.9531 18.0469 22.0312 18.0469 24C18.0469 25.375 18.0938 26.9531 18.1875 28.7344C17.5 28.9531 16.8906 29.3281 16.3594 29.8594C14.6719 29.2031 13.0469 28.4531 11.4844 27.6094C11.8281 26.9219 12 26.2187 12 25.5C12 24.25 11.5625 23.1875 10.6875 22.3125C9.8125 21.4375 8.75 21 7.5 21C6.125 21 4.98438 21.5313 4.07812 22.5938C2.76562 21.4062 1.59375 20.1719 0.5625 18.8906C0.84375 17.5469 1.26562 16.2188 1.82812 14.9062C5.64063 13.8438 10.0469 13.4531 15.0469 13.7344ZM3.04688 25.875C3.14062 27.0312 3.61719 28.0078 4.47656 28.8047C5.33594 29.6016 6.34375 30 7.5 30C7.84375 30 8.21875 29.9375 8.625 29.8125C10.625 30.9687 12.7656 31.9688 15.0469 32.8125V33C15.0469 34.2188 15.4609 35.2578 16.2891 36.1172C17.1172 36.9766 18.1406 37.4375 19.3594 37.5C20.1406 41.3125 21.2344 44.7969 22.6406 47.9531C19.5156 47.7656 16.5625 47.0078 13.7812 45.6797C11 44.3516 8.60156 42.625 6.58594 40.5C4.57031 38.375 2.96875 35.875 1.78125 33C0.59375 30.125 0 27.125 0 24C0 23.9687 0.015625 23.5469 0.046875 22.7344C0.921875 23.8281 1.92188 24.875 3.04688 25.875ZM23.4844 35.1094C25.7344 35.5156 28 35.7812 30.2812 35.9062C30.5 36.5312 30.8438 37.1094 31.3125 37.6406C30.5938 40.9219 30.1562 44.1094 30 47.2031C28.4062 47.6094 26.9375 47.8594 25.5938 47.9531C24.125 44.6094 22.9844 40.8281 22.1719 36.6094C22.7344 36.2344 23.1719 35.7344 23.4844 35.1094ZM38.0156 37.3594C38.4219 36.8594 38.7031 36.3281 38.8594 35.7656C41.1406 35.5781 43.3438 35.2813 45.4688 34.875C43.9688 37.8125 41.9062 40.3594 39.2812 42.5156C39 40.8906 38.5781 39.1719 38.0156 37.3594ZM30.375 32.9062C28.1875 32.7812 26.0312 32.5 23.9062 32.0625C23.5625 30.5 22.6719 29.4219 21.2344 28.8281C21.1094 26.9844 21.0469 25.375 21.0469 24C21.0469 21.9375 21.1406 19.7969 21.3281 17.5781C21.3906 17.5781 21.4688 17.5469 21.5625 17.4844C21.6562 17.4219 21.7187 17.3906 21.75 17.3906C22.9688 18.5781 24.0312 19.6719 24.9375 20.6719C27.6562 23.6719 29.9687 27.0781 31.875 30.8906C31.1875 31.4219 30.6875 32.0937 30.375 32.9062ZM34.5469 39C34.6094 39 34.7812 38.9844 35.0625 38.9531C35.5937 40.8594 35.9844 42.75 36.2344 44.625C35.3281 45.1562 34.2344 45.6875 32.9531 46.2188C33.1719 43.7812 33.5469 41.3594 34.0781 38.9531C34.3281 38.9844 34.4844 39 34.5469 39ZM34.3125 27.7969C34.2812 27.8594 34.2422 27.9531 34.1953 28.0781C34.1484 28.2031 34.1094 28.2969 34.0781 28.3594C32.1094 24.7969 29.7969 21.5625 27.1406 18.6562C26.1719 17.5625 25.0156 16.375 23.6719 15.0938C23.7031 15.0938 23.7266 15.0703 23.7422 15.0234L23.7656 14.9531C26.3906 15.4844 28.9063 16.1406 31.3125 16.9219C32.7813 17.3906 34.3906 18.0156 36.1406 18.7969C36.0781 19.1094 36.0469 19.3438 36.0469 19.5C36.0469 20.4375 36.3281 21.2969 36.8906 22.0781C35.8594 24.0469 35 25.9531 34.3125 27.7969ZM36.5156 30.5156C36.8906 29.4219 37.0781 28.8594 37.0781 28.8281C37.7031 27.2656 38.4844 25.5938 39.4219 23.8125C39.8281 23.9375 40.2188 24 40.5938 24C41.6562 24 42.6094 23.6406 43.4531 22.9219C44.9844 23.9844 46.4844 25.1719 47.9531 26.4844C47.7656 28.2656 47.3906 29.9844 46.8281 31.6406C44.2656 32.1719 41.5625 32.5469 38.7188 32.7656C38.3125 31.7656 37.5781 31.0156 36.5156 30.5156ZM45.0938 19.4531C45.0938 18.4219 44.75 17.4844 44.0625 16.6406C44.7188 15.7969 45.375 15.0313 46.0312 14.3438C47.1562 16.9063 47.8125 19.5469 48 22.2656C46.9688 21.4844 45.9687 20.7812 45 20.1562C45.0625 19.875 45.0938 19.6406 45.0938 19.4531Z"
    fill="#845EC2" />
</svg>